<?xml version="1.0" standalone="no"?>
<!DOCTYPE svg PUBLIC "-//W3C//DTD SVG 20010904//EN"
 "http://www.w3.org/TR/2001/REC-SVG-20010904/DTD/svg10.dtd">
<svg version="1.0" xmlns="http://www.w3.org/2000/svg"
 width="1210.000000pt" height="1462.000000pt" viewBox="0 0 1210.000000 1462.000000"
 preserveAspectRatio="xMidYMid meet">
<metadata>
Created by potrace 1.15, written by Peter Selinger 2001-2017
</metadata>
<g transform="translate(0.000000,1462.000000) scale(0.100000,-0.100000)"
fill="#000000" stroke="none">
<path d="M5825 14604 c-384 -24 -664 -66 -1005 -150 -1439 -357 -2673 -1357
-3329 -2699 -275 -562 -437 -1147 -502 -1815 -10 -96 -13 -1191 -16 -4712 l-3
-4587 -363 -3 -362 -3 -57 -28 c-62 -30 -115 -83 -150 -149 -19 -36 -23 -58
-23 -138 0 -80 4 -102 23 -138 35 -66 88 -119 150 -149 l57 -28 5805 0 5805 0
57 28 c33 16 76 49 102 78 141 157 85 411 -112 502 -45 21 -63 22 -404 25
l-358 3 0 4502 c0 2883 -4 4563 -10 4672 -53 891 -331 1737 -818 2485 -314
483 -754 951 -1226 1302 -745 557 -1618 893 -2551 983 -155 15 -588 27 -710
19z m463 -644 c1002 -56 1911 -421 2668 -1073 156 -135 421 -409 547 -567 409
-511 697 -1086 852 -1705 l33 -130 -4326 -3 c-2379 -1 -4328 1 -4331 4 -8 7
52 239 101 394 118 371 316 782 531 1105 874 1310 2367 2062 3925 1975z m4205
-4227 c4 -58 7 -2128 7 -4600 l0 -4493 -4440 0 -4440 0 0 4600 0 4600 4433 0
4434 0 6 -107z"/>
<path d="M3377 7605 c-89 -33 -172 -122 -197 -210 -7 -27 -11 -75 -8 -118 8
-124 69 -210 188 -266 l55 -26 2630 0 2630 0 47 22 c67 31 142 104 169 166 35
79 34 192 -4 269 -30 62 -83 115 -149 150 l-43 23 -2640 2 c-2252 1 -2646 0
-2678 -12z"/>
<path d="M3400 5391 c-92 -29 -182 -112 -213 -197 -10 -29 -17 -78 -17 -120 0
-59 5 -81 30 -132 35 -69 92 -125 159 -156 l46 -21 2635 0 2635 0 56 26 c68
32 120 83 156 152 24 45 28 64 28 137 0 66 -5 96 -21 131 -31 66 -87 124 -152
156 l-57 28 -2630 2 c-1446 1 -2641 -2 -2655 -6z"/>
</g>
</svg>
